programs/vcd/Helium.vcd
$date
2026-01-14T06:29+0000
$end
$version
0.2
$end
$comment

$end
$timescale 1ns  $end
$scope module ZaqalCore $end
 $var wire 1 C decoders_1 $end
 $var wire 1 D decoders_0 $end
 $var wire 1 E decoders_3 $end
 $var wire 1 F decoders_2 $end
 $var wire 1 G decoders_5 $end
 $var wire 1 H decoders_4 $end
 $var wire 1 I decoders_7 $end
 $var wire 1 J decoders_6 $end
 $var wire 1 ` io_success $end
 $var wire 1 a imem $end
 $var wire 1 "3 clock $end
 $var wire 1 "b printf_9 $end
 $var wire 1 "d printf_8 $end
 $var wire 1 "f printf_7 $end
 $var wire 1 "h printf_6 $end
 $var wire 1 "n printf_1 $end
 $var wire 1 "p printf_5 $end
 $var wire 1 "q printf_4 $end
 $var wire 1 "r printf_3 $end
 $var wire 1 "s printf_2 $end
 $var wire 1 "x printf $end
 $var wire 1 #* reset $end
 $var wire 1 #L frontend $end
  $scope module decoders_1 $end
   $var wire 1 * io_out_inst_add $end
   $var wire 5 M io_out_dst_reg $end
   $var wire 32 O io_inst $end
   $var wire 1 | io_out_has_dest $end
   $var wire 5 "2 rd $end
   $var wire 7 "` opcode $end
   $var wire 1 "w io_out_inst_addi $end
   $var wire 1 #> io_out_inst_lui $end
  $upscope $end
  $scope module decoders_0 $end
   $var wire 5 ") rd $end
   $var wire 1 "4 io_out_inst_add $end
   $var wire 5 "5 io_out_dst_reg $end
   $var wire 1 "K io_out_inst_lui $end
   $var wire 1 "~ io_out_has_dest $end
   $var wire 1 #/ io_out_inst_addi $end
   $var wire 7 #6 opcode $end
   $var wire 32 #K io_inst $end
  $upscope $end
  $scope module decoders_3 $end
   $var wire 5 1 rd $end
   $var wire 32 m io_inst $end
   $var wire 7 "/ opcode $end
   $var wire 1 "1 io_out_inst_add $end
   $var wire 1 "E io_out_inst_lui $end
   $var wire 1 "Y io_out_inst_addi $end
   $var wire 1 "| io_out_has_dest $end
   $var wire 5 #E io_out_dst_reg $end
  $upscope $end
  $scope module decoders_2 $end
   $var wire 1 ! io_out_has_dest $end
   $var wire 5 % io_out_dst_reg $end
   $var wire 1 z io_out_inst_lui $end
   $var wire 7 "0 opcode $end
   $var wire 1 "8 io_out_inst_addi $end
   $var wire 5 "< rd $end
   $var wire 32 "W io_inst $end
   $var wire 1 #" io_out_inst_add $end
  $upscope $end
  $scope module decoders_5 $end
   $var wire 1 $ io_out_has_dest $end
   $var wire 5 _ io_out_dst_reg $end
   $var wire 1 e io_out_inst_addi $end
   $var wire 1 w io_out_inst_lui $end
   $var wire 1 #! io_out_inst_add $end
   $var wire 5 #' rd $end
   $var wire 7 #8 opcode $end
   $var wire 32 #< io_inst $end
  $upscope $end
  $scope module decoders_4 $end
   $var wire 1 + io_out_inst_add $end
   $var wire 5 : rd $end
   $var wire 7 = opcode $end
   $var wire 1 ? io_out_inst_addi $end
   $var wire 32 ] io_inst $end
   $var wire 1 } io_out_has_dest $end
   $var wire 5 #1 io_out_dst_reg $end
   $var wire 1 #? io_out_inst_lui $end
  $upscope $end
  $scope module decoders_7 $end
   $var wire 1 # io_out_inst_add $end
   $var wire 32 ' io_inst $end
   $var wire 1 ( io_out_inst_addi $end
   $var wire 7 > opcode $end
   $var wire 1 { io_out_has_dest $end
   $var wire 5 "- io_out_dst_reg $end
   $var wire 1 #: io_out_inst_lui $end
   $var wire 5 #I rd $end
  $upscope $end
  $scope module decoders_6 $end
   $var wire 5 s io_out_dst_reg $end
   $var wire 1 "6 io_out_inst_add $end
   $var wire 1 "M io_out_inst_lui $end
   $var wire 7 "_ opcode $end
   $var wire 1 "{ io_out_has_dest $end
   $var wire 5 #- rd $end
   $var wire 32 #0 io_inst $end
   $var wire 1 #2 io_out_inst_addi $end
  $upscope $end
  $scope module imem $end
   $var wire 64 " isMemEmpty_lo_lo $end
   $var wire 64 & isMemEmpty_hi_lo $end
   $var wire 10 0 mem_4_outData_addr_pipe_0 $end
   $var wire 1 3 mem_6_outData_en_pipe_0 $end
   $var wire 64 6 isMemEmpty_lo_hi $end
   $var wire 64 < isMemEmpty_hi_hi $end
   $var wire 128 A isMemEmpty_lo $end
   $var wire 1 B mem_7_outData_en_pipe_0 $end
   $var wire 1 R mem_3_outData_en_pipe_0 $end
   $var wire 1 h io_resp_valid $end
   $var wire 128 j isMemEmpty_hi $end
   $var wire 10 k mem_3_outData_addr_pipe_0 $end
   $var wire 1 o clock $end
   $var wire 64 t io_req_bits_pc $end
   $var wire 10 v mem_5_outData_addr_pipe_0 $end
   $var wire 1 x mem_4_outData_en_pipe_0 $end
   $var wire 32 "! mem_7 $end
   $var wire 32 "" mem_6 $end
   $var wire 32 "# mem_5 $end
   $var wire 32 "$ mem_4 $end
   $var wire 32 "% mem_3 $end
   $var wire 32 "& mem_2 $end
   $var wire 32 "' mem_1 $end
   $var wire 32 "( mem_0 $end
   $var wire 1 "* io_req_valid $end
   $var wire 10 "= mem_1_outData_addr_pipe_0 $end
   $var wire 10 "> raddr $end
   $var wire 1 "C mem_5_outData_en_pipe_0 $end
   $var wire 32 "H romData_2 $end
   $var wire 32 "I romData_1 $end
   $var wire 32 "J romData_0 $end
   $var wire 32 "L romData_6 $end
   $var wire 32 "N romData_5 $end
   $var wire 32 "O romData_4 $end
   $var wire 32 "P romData_3 $end
   $var wire 32 "Q romData_7 $end
   $var wire 10 "S mem_2_outData_addr_pipe_0 $end
   $var wire 10 "T mem_6_outData_addr_pipe_0 $end
   $var wire 1 "X isMemEmpty $end
   $var wire 10 "a mem_7_outData_addr_pipe_0 $end
   $var wire 32 "c io_resp_bits_5 $end
   $var wire 32 "e io_resp_bits_6 $end
   $var wire 32 "g io_resp_bits_7 $end
   $var wire 32 "i io_resp_bits_1 $end
   $var wire 32 "j io_resp_bits_2 $end
   $var wire 32 "k io_resp_bits_3 $end
   $var wire 32 "m io_resp_bits_4 $end
   $var wire 32 "o io_resp_bits_0 $end
   $var wire 1 "y io_req_ready $end
   $var wire 1 "} validDelay $end
   $var wire 1 ## mem_0_outData_en_pipe_0 $end
   $var wire 1 #$ mem_1_outData_en_pipe_0 $end
   $var wire 1 #& mem_2_outData_en_pipe_0 $end
   $var wire 1 #. io_resp_ready $end
   $var wire 1 #= ren $end
   $var wire 1 #@ reset $end
   $var wire 10 #D mem_0_outData_addr_pipe_0 $end
    $scope module mem_6 $end
      $scope module outData $end
       $var wire 32 5 data $end
       $var wire 10 S addr $end
       $var wire 1 q en $end
       $var wire 1 "A clk $end
      $upscope $end
    $upscope $end
    $scope module mem_4 $end
      $scope module outData $end
       $var wire 1 8 en $end
       $var wire 32 d data $end
       $var wire 10 "9 addr $end
       $var wire 1 #J clk $end
      $upscope $end
    $upscope $end
    $scope module mem_5 $end
      $scope module outData $end
       $var wire 32 Q data $end
       $var wire 1 [ clk $end
       $var wire 10 c addr $end
       $var wire 1 #H en $end
      $upscope $end
    $upscope $end
    $scope module mem_0 $end
      $scope module outData $end
       $var wire 1 U en $end
       $var wire 32 "R data $end
       $var wire 10 #B addr $end
       $var wire 1 #F clk $end
      $upscope $end
    $upscope $end
    $scope module mem_3 $end
      $scope module outData $end
       $var wire 1 X clk $end
       $var wire 10 ", addr $end
       $var wire 32 "; data $end
       $var wire 1 "D en $end
      $upscope $end
    $upscope $end
    $scope module mem_1 $end
      $scope module outData $end
       $var wire 1 Y clk $end
       $var wire 10 "F addr $end
       $var wire 32 "z data $end
       $var wire 1 #4 en $end
      $upscope $end
    $upscope $end
    $scope module mem_7 $end
      $scope module outData $end
       $var wire 1 Z clk $end
       $var wire 1 "+ en $end
       $var wire 10 #3 addr $end
       $var wire 32 #C data $end
      $upscope $end
    $upscope $end
    $scope module mem_2 $end
      $scope module outData $end
       $var wire 1 \ en $end
       $var wire 1 "@ clk $end
       $var wire 32 "^ data $end
       $var wire 10 "u addr $end
      $upscope $end
    $upscope $end
  $upscope $end
  $scope module frontend.ftq $end
  $upscope $end
  $scope module frontend $end
   $var wire 64 ) pcReg $end
   $var wire 1 @ reset $end
   $var wire 1 p io_fetchOut_valid $end
   $var wire 64 ~ io_fetchOut_bits_pc $end
   $var wire 1 ". ftq $end
   $var wire 8 "v io_fetchOut_bits_mask $end
   $var wire 1 #( clock $end
   $var wire 1 #, io_fetchOut_ready $end
    $scope module ftq $end
     $var wire 1 ; clock $end
     $var wire 64 K io_enq_bits_pc $end
     $var wire 1 V maybe_full $end
     $var wire 1 n io_enq_valid $end
     $var wire 1 r io_enq_ready $end
     $var wire 1 u ptr_match $end
     $var wire 1 ": full $end
     $var wire 64 "G ram_pc $end
     $var wire 64 "V io_deq_bits_pc $end
     $var wire 8 "Z ram_mask $end
     $var wire 3 "\ enq_ptr_value $end
     $var wire 1 "] do_deq $end
     $var wire 1 "l empty $end
     $var wire 8 "t io_enq_bits_mask $end
     $var wire 1 #% reset $end
     $var wire 1 #) io_deq_ready $end
     $var wire 1 #+ io_deq_valid $end
     $var wire 8 #7 io_deq_bits_mask $end
     $var wire 1 #9 do_enq $end
     $var wire 3 #G deq_ptr_value $end
      $scope module ram_mask $end
       $var wire 8 g MPORT $end
        $scope module MPORT $end
         $var wire 1 , valid $end
         $var wire 3 2 addr $end
         $var wire 3 4 pipeline_addr_0 $end
         $var wire 8 P data $end
         $var wire 8 b pipeline_data_0 $end
         $var wire 1 i pipeline_valid_0 $end
         $var wire 1 "7 clk $end
         $var wire 1 #5 mask $end
         $var wire 1 #A en $end
        $upscope $end
        $scope module io_deq_bits_MPORT $end
         $var wire 8 7 data $end
         $var wire 3 W addr $end
         $var wire 1 "? clk $end
         $var wire 1 "[ en $end
        $upscope $end
      $upscope $end
      $scope module ram_pc $end
       $var wire 64 . MPORT $end
        $scope module MPORT $end
         $var wire 3 - pipeline_addr_0 $end
         $var wire 1 / valid $end
         $var wire 1 9 pipeline_valid_0 $end
         $var wire 64 L data $end
         $var wire 64 N pipeline_data_0 $end
         $var wire 3 T addr $end
         $var wire 1 ^ clk $end
         $var wire 1 "B mask $end
         $var wire 1 #; en $end
        $upscope $end
        $scope module io_deq_bits_MPORT $end
         $var wire 64 f data $end
         $var wire 1 l clk $end
         $var wire 3 y addr $end
         $var wire 1 "U en $end
        $upscope $end
      $upscope $end
    $upscope $end
  $upscope $end
$upscope $end
$enddefinitions $end
$dumpvars
03
b00000000 g
b00000000000000000000000000000000 '
08
09
b00000000 b
0;
b0000000 "0
0?
0@
0B
0C
0D
0E
0F
0G
0H
0I
0J
b00000000000000000000000000000000 5
0R
0U
0V
0X
0Y
b0000000000000000000000000000000000000000000000000000000000000000 "G
0Z
0[
0\
0^
0`
0a
b0000000 "/
0e
0h
b0000000000000000000000000000000000000000000000000000000000000000 "V
0i
b0000000000000000000000000000000000000000000000000000000000000000 ~
0l
0o
0p
0q
0r
0u
0w
0x
0z
0{
0|
b0000000000000000000000000000000000000000000000000000000000000000 t
0}
1"B
b0000000000000000000000000000000000000000000000000000000000000000 f
1#,
1#.
1n
b0000000 "_
1#5
1"U
b0000000 #6
1"[
b0000000000000000000000000000000000000000000000000000000000000000 N
b0000000 #8
b0000000000000000000000000000000000000000000000000000000000000000 L
b0000000000000000000000000000000000000000000000000000000000000000 K
0"*
0"+
0".
b0000000 "`
0"1
0"3
0"4
0"6
0"7
b00000 #-
0"8
0":
1"y
0"?
0"@
0#!
0"A
0#"
b00000 #'
0##
0"C
0#$
b00000000 "v
b000 y
0"D
0#%
0"E
0#&
b00000000 "t
0#(
b00000 "<
0#)
0#*
0#+
0"K
0"M
b00000 "2
0#/
b00000 "5
0#2
b00000 ")
0#4
b00000 "-
0"X
0#9
0"Y
0#:
0#;
0#=
0"]
0#>
0#?
0#@
0#A
b000 W
0"b
0"d
0#F
0"f
0#H
0"h
b000 T
0#J
0#L
0"l
0"n
0"p
0"q
b00000000000000000000000000000000 "o
0"r
0"s
b00000000000000000000000000000000 "m
0"w
0"x
b00000000000000000000000000000000 "g
0"{
b00000000000000000000000000000000 "e
0"|
0"}
b00000000000000000000000000000000 "k
0"~
b00000000000000000000000000000000 "j
b00000000000000000000000000000000 #K
b00000000000000000000000000000000 "i
b0000000 =
b000 2
b0000000 >
b000 4
b00000000000000000000000000000000 "z
b00000 #I
b00000 #E
b000 -
b00000 #1
b0000000000 ",
b00000000000000000000000000000000 "'
b00000000000000000000000000000000 "&
b00000000000000000000000000000000 "%
b00000000000000000000000000000000 "$
b00000000000000000000000000000000 "(
b0000000000 "=
b0000000000 ">
b00000000000000000000000000000000 ";
b0000000000 "9
b00000000000000000000000000000000 "O
b00000000000000000000000000000000 #0
b00000000000000000000000000000000 "N
b00000000000000000000000000000000 "L
b00000000000000000000000000000000 "R
b00000000000000000000000000000000 "Q
b0000000000 "S
b00000000000000000000000000000000 "P
b0000000000 #3
b0000000000 "F
b00000000000000000000000000000000 "J
b00000000000000000000000000000000 "I
b00000000000000000000000000000000 "H
b00000000000000000000000000000000 "^
b00000000000000000000000000000000 "c
b0000000000 "a
b0000000000 #B
b00000000000000000000000000000000 #C
b0000000000 #D
b00000000000000000000000000000000 "W
b0000000000 "T
b00000000000000000000000000000000 #<
b0000000000 v
b0000000000 k
b00000000000000000000000000000000000000000000000000000000000000000000000000000000000000000000000000000000000000000000000000000000 j
b0000000000 c
b0000000000 S
b00000000 #7
b00000000000000000000000000000000000000000000000000000000000000000000000000000000000000000000000000000000000000000000000000000000 A
b00000000000000000000000000000000 "#
b00000000000000000000000000000000 ""
b00000000 "Z
b00000000000000000000000000000000 "!
b0000000000000000000000000000000000000000000000000000000000000000 6
b0000000000000000000000000000000000000000000000000000000000000000 <
b0000000000 0
b000 "\
b0000000000000000000000000000000000000000000000000000000000000000 .
b000 #G
b0000000000000000000000000000000000000000000000000000000000000000 )
b00000 %
b0000000000000000000000000000000000000000000000000000000000000000 &
b00000 1
b0000000000000000000000000000000000000000000000000000000000000000 "
b00000 :
b00000 M
b00000000000000000000000000000000 m
b00000000000000000000000000000000 d
b00000 _
b00000000 7
b11111111 P
b0000000000 "u
b00000 s
0!
b00000000000000000000000000000000 ]
0#
0$
0(
0*
0+
0,
b00000000000000000000000000000000 O
b00000000000000000000000000000000 Q
0/
$end
#0
b00010001000101010000010100011011 "c
b01000 #E
b00000000000000010000000000000001 "e
b00000000000000010000000000000001 "g
b00000000000000000000000100010011 "i
b00000000000000000000010000010011 "j
b00000000000000001000000100110111 #K
b00000000000000000000010000010011 "k
1"l
b00010001000100010001010100110111 "m
b00000000000000001000000100110111 "o
b11111111 "t
1"w
1"|
1"~
1!
b01000 %
b00000000000000010000000000000001 '
1,
1/
b01000 1
b01010 :
b0110111 =
b0000001 >
1@
b00010 ")
b00010 M
b0010011 "/
b0010011 "0
b00000000000000000000000100010011 O
b00010 "2
b00010 "5
1"8
b01000 "<
b00010001000100010001010100110111 ]
b01010 _
1`
1#%
b01010 #'
1#)
b00000000000000000000010000010011 "H
1#*
b00000000000000000000000100010011 "I
b00000000000000001000000100110111 "J
1"K
b00000000000000010000000000000001 "L
b00010001000101010000010100011011 "N
b00000000000000000000010000010011 m
b00010001000100010001010100110111 "O
b00000000000000010000000000000001 #0
b00000000000000000000010000010011 "P
b01010 #1
b00000000000000010000000000000001 "Q
1r
b0110111 #6
1u
b0011011 #8
b00000000000000000000010000010011 "W
1"X
1#9
1"Y
1#;
b00010001000101010000010100011011 #<
1|
1#?
1}
1#@
b0000001 "_
b0010011 "`
1#A
#1
1#F
1#J
b0000000000000000000000000000000010000000000000000000000000000000 K
b0000000000000000000000000000000010000000000000000000000000000000 L
1"3
b11111111 "v
1"7
1X
1Y
1Z
1[
1"?
1^
1"@
1"A
b11111111 b
1#(
b0000000000000000000000000000000010000000000000000000000000000000 )
1i
1l
1o
b11111111 #7
b11111111 7
19
1;
#6
1@
1#%
0#F
0#(
1#*
0#J
0l
0o
0"3
0"7
0X
0Y
0Z
0;
0[
0"?
1#@
0^
0"@
0"A
#11
1#F
1#(
b0000000000000000000000000000000010000000000000000000000000000000 f
1#J
1l
b0000000000000000000000000000000010000000000000000000000000000000 N
1o
1"3
b0000000000000000000000000000000010000000000000000000000000000000 t
b0000000000000000000000000000000010000000000000000000000000000000 "V
1"7
1X
1Y
1Z
1;
1[
1"?
1^
b0000000000000000000000000000000010000000000000000000000000000000 ~
1"@
1"A
#16
0#F
0#(
0#J
0l
0o
0"3
0"7
0X
0Y
0Z
0;
0[
0"?
0^
0"@
0"A
#21
1#F
1#(
1#J
1l
1o
1"3
1"7
1X
1Y
1Z
1;
1[
1"?
1^
1"@
1"A
#26
0#F
0#(
0#J
0l
0o
0"3
0"7
0X
0Y
0Z
0;
0[
0"?
0^
0"@
0"A
#31
1#F
1#(
1#J
1l
1o
1"3
1"7
1X
1Y
1Z
1;
1[
1"?
1^
1"@
1"A
#36
0#F
0#(
0#J
0l
0o
0"3
0"7
0X
0Y
0Z
0;
0[
0"?
0^
0"@
0"A
#41
1#F
1#(
1#J
1l
1o
1"3
1"7
1X
1Y
1Z
1;
1[
1"?
1^
1"@
1"A
#46
0#F
0#(
0#J
0l
0o
0"3
0"7
0X
0Y
0Z
0;
0[
0"?
0^
0"@
0"A
#51
1#F
1#(
1#J
1l
1o
1"3
1"7
1X
1Y
1Z
1;
1[
1"?
1^
1"@
1"A
#56
0@
0#%
0#F
0#(
0#*
0#J
0l
0o
0"3
0"7
0X
0Y
0Z
0;
0[
0"?
0#@
0^
0"@
0"A
#61
1#F
1#J
1"*
0"l
b0000000000000000000000000000000010000000000000000000000000100000 K
b0000000000000000000000000000000010000000000000000000000000100000 L
1"3
b001 T
1"7
1V
1X
1Y
1Z
1[
1"?
1^
1"@
1"A
1#(
1#+
b0000000000000000000000000000000010000000000000000000000000100000 )
1l
1o
1p
b001 2
0u
b001 "\
1#=
1;
1"]
#66
0#F
0#(
0#J
0l
0o
0"3
0"7
0X
0Y
0Z
0;
0[
0"?
0^
0"@
0"A
#71
1#F
b001 #G
1#H
1#J
1"}
b0000000000000000000000000000000010000000000000000000000001000000 )
b001 -
b010 2
13
b001 4
18
1;
1B
1"+
b0000000000000000000000000000000010000000000000000000000001000000 K
b0000000000000000000000000000000010000000000000000000000001000000 L
b0000000000000000000000000000000010000000000000000000000000100000 N
1"3
1R
b010 T
1U
1"7
b001 W
1X
1Y
1Z
1[
1\
b0000000001 ">
1"?
1^
1"@
1"A
1##
1"C
1#$
1"D
1#&
1#(
b0000000000000000000000000000000010000000000000000000000000100000 f
1h
1l
1o
1q
1#4
b0000000000000000000000000000000010000000000000000000000000100000 t
b0000000000000000000000000000000010000000000000000000000000100000 "V
1x
b001 y
b010 "\
b0000000000000000000000000000000010000000000000000000000000100000 ~
#76
0#F
0#(
0#J
0l
0o
0"3
0"7
0X
0Y
0Z
0;
0[
0"?
0^
0"@
0"A
#81
b0000000001 #D
1#F
b010 #G
1#J
b0000000001 "u
b0000000000000000000000000000000010000000000000000000000001100000 )
b010 -
b0000000001 0
b011 2
b010 4
1;
b0000000001 ",
b0000000000000000000000000000000010000000000000000000000001100000 K
b0000000000000000000000000000000010000000000000000000000001100000 L
b0000000000000000000000000000000010000000000000000000000001000000 N
1"3
b0000000001 S
b011 T
1"7
b010 W
b0000000001 "9
1X
1Y
1Z
1[
b0000000001 "=
b0000000010 ">
1"?
1^
1"@
1"A
b0000000001 c
b0000000001 "F
1#(
b0000000000000000000000000000000010000000000000000000000001000000 f
b0000000001 k
1l
1o
b0000000001 #3
b0000000001 "S
b0000000001 "T
b0000000000000000000000000000000010000000000000000000000001000000 t
b0000000000000000000000000000000010000000000000000000000001000000 "V
b0000000001 v
b010 y
b011 "\
b0000000000000000000000000000000010000000000000000000000001000000 ~
b0000000001 "a
b0000000001 #B
#86
0#F
0#(
0#J
0l
0o
0"3
0"7
0X
0Y
0Z
0;
0[
0"?
0^
0"@
0"A
#91
b0000000010 #D
1#F
b011 #G
1#J
b0000000010 "u
b0000000000000000000000000000000010000000000000000000000010000000 )
b011 -
b0000000010 0
b100 2
b011 4
1;
b0000000010 ",
b0000000000000000000000000000000010000000000000000000000010000000 K
b0000000000000000000000000000000010000000000000000000000010000000 L
b0000000000000000000000000000000010000000000000000000000001100000 N
1"3
b0000000010 S
b100 T
1"7
b011 W
b0000000010 "9
1X
1Y
1Z
1[
b0000000010 "=
b0000000011 ">
1"?
1^
1"@
1"A
b0000000010 c
b0000000010 "F
1#(
b0000000000000000000000000000000010000000000000000000000001100000 f
b0000000010 k
1l
1o
b0000000010 #3
b0000000010 "S
b0000000010 "T
b0000000000000000000000000000000010000000000000000000000001100000 t
b0000000000000000000000000000000010000000000000000000000001100000 "V
b0000000010 v
b011 y
b100 "\
b0000000000000000000000000000000010000000000000000000000001100000 ~
b0000000010 "a
b0000000010 #B
#96
0#F
0#(
0#J
0l
0o
0"3
0"7
0X
0Y
0Z
0;
0[
0"?
0^
0"@
0"A
#101
b0000000011 #D
1#F
b100 #G
1#J
b0000000011 "u
b0000000000000000000000000000000010000000000000000000000010100000 )
b100 -
b0000000011 0
b101 2
b100 4
1;
b0000000011 ",
b0000000000000000000000000000000010000000000000000000000010100000 K
b0000000000000000000000000000000010000000000000000000000010100000 L
b0000000000000000000000000000000010000000000000000000000010000000 N
1"3
b0000000011 S
b101 T
1"7
b100 W
b0000000011 "9
1X
1Y
1Z
1[
b0000000011 "=
b0000000100 ">
1"?
1^
1"@
1"A
b0000000011 c
b0000000011 "F
1#(
b0000000000000000000000000000000010000000000000000000000010000000 f
b0000000011 k
1l
1o
b0000000011 #3
b0000000011 "S
b0000000011 "T
b0000000000000000000000000000000010000000000000000000000010000000 t
b0000000000000000000000000000000010000000000000000000000010000000 "V
b0000000011 v
b100 y
b101 "\
b0000000000000000000000000000000010000000000000000000000010000000 ~
b0000000011 "a
b0000000011 #B
#106
0#F
0#(
0#J
0l
0o
0"3
0"7
0X
0Y
0Z
0;
0[
0"?
0^
0"@
0"A
#111
b0000000100 #D
1#F
b101 #G
1#J
b0000000100 "u
b0000000000000000000000000000000010000000000000000000000011000000 )
b101 -
b0000000100 0
b110 2
b101 4
1;
b0000000100 ",
b0000000000000000000000000000000010000000000000000000000011000000 K
b0000000000000000000000000000000010000000000000000000000011000000 L
b0000000000000000000000000000000010000000000000000000000010100000 N
1"3
b0000000100 S
b110 T
1"7
b101 W
b0000000100 "9
1X
1Y
1Z
1[
b0000000100 "=
b0000000101 ">
1"?
1^
1"@
1"A
b0000000100 c
b0000000100 "F
1#(
b0000000000000000000000000000000010000000000000000000000010100000 f
b0000000100 k
1l
1o
b0000000100 #3
b0000000100 "S
b0000000100 "T
b0000000000000000000000000000000010000000000000000000000010100000 t
b0000000000000000000000000000000010000000000000000000000010100000 "V
b0000000100 v
b101 y
b110 "\
b0000000000000000000000000000000010000000000000000000000010100000 ~
b0000000100 "a
b0000000100 #B
#116
0#F
0#(
0#J
0l
0o
0"3
0"7
0X
0Y
0Z
0;
0[
0"?
0^
0"@
0"A
#121
b0000000101 #D
1#F
b110 #G
1#J
b0000000101 "u
b0000000000000000000000000000000010000000000000000000000011100000 )
b110 -
b0000000101 0
b111 2
b110 4
1;
b0000000101 ",
b0000000000000000000000000000000010000000000000000000000011100000 K
b0000000000000000000000000000000010000000000000000000000011100000 L
b0000000000000000000000000000000010000000000000000000000011000000 N
1"3
b0000000101 S
b111 T
1"7
b110 W
b0000000101 "9
1X
1Y
1Z
1[
b0000000101 "=
b0000000110 ">
1"?
1^
1"@
1"A
b0000000101 c
b0000000101 "F
1#(
b0000000000000000000000000000000010000000000000000000000011000000 f
b0000000101 k
1l
1o
b0000000101 #3
b0000000101 "S
b0000000101 "T
b0000000000000000000000000000000010000000000000000000000011000000 t
b0000000000000000000000000000000010000000000000000000000011000000 "V
b0000000101 v
b110 y
b111 "\
b0000000000000000000000000000000010000000000000000000000011000000 ~
b0000000101 "a
b0000000101 #B
#126
0#F
0#(
0#J
0l
0o
0"3
0"7
0X
0Y
0Z
0;
0[
0"?
0^
0"@
0"A
#131
b0000000110 #D
1#F
b111 #G
1#J
b0000000110 "u
b0000000000000000000000000000000010000000000000000000000100000000 )
b111 -
b0000000110 0
b000 2
b111 4
1;
b0000000110 ",
b0000000000000000000000000000000010000000000000000000000100000000 K
b0000000000000000000000000000000010000000000000000000000100000000 L
b0000000000000000000000000000000010000000000000000000000011100000 N
1"3
b0000000110 S
b000 T
1"7
b111 W
b0000000110 "9
1X
1Y
1Z
1[
b0000000110 "=
b0000000111 ">
1"?
1^
1"@
1"A
b0000000110 c
b0000000110 "F
1#(
b0000000000000000000000000000000010000000000000000000000011100000 f
b0000000110 k
1l
1o
b0000000110 #3
b0000000110 "S
b0000000110 "T
b0000000000000000000000000000000010000000000000000000000011100000 t
b0000000000000000000000000000000010000000000000000000000011100000 "V
b0000000110 v
b111 y
b000 "\
b0000000000000000000000000000000010000000000000000000000011100000 ~
b0000000110 "a
b0000000110 #B
#136
0#F
0#(
0#J
0l
0o
0"3
0"7
0X
0Y
0Z
0;
0[
0"?
0^
0"@
0"A
#141
b0000000111 #D
1#F
b000 #G
1#J
b0000000111 "u
b0000000000000000000000000000000010000000000000000000000100100000 )
b000 -
b0000000111 0
b001 2
b000 4
1;
b0000000111 ",
b0000000000000000000000000000000010000000000000000000000100100000 K
b0000000000000000000000000000000010000000000000000000000100100000 L
b0000000000000000000000000000000010000000000000000000000100000000 N
1"3
b0000000111 S
b001 T
1"7
b000 W
b0000000111 "9
1X
1Y
1Z
1[
b0000000111 "=
b0000001000 ">
1"?
1^
1"@
1"A
b0000000111 c
b0000000111 "F
1#(
b0000000000000000000000000000000010000000000000000000000100000000 f
b0000000111 k
1l
1o
b0000000111 #3
b0000000111 "S
b0000000111 "T
b0000000000000000000000000000000010000000000000000000000100000000 t
b0000000000000000000000000000000010000000000000000000000100000000 "V
b0000000111 v
b000 y
b001 "\
b0000000000000000000000000000000010000000000000000000000100000000 ~
b0000000111 "a
b0000000111 #B
#146
0#F
0#(
0#J
0l
0o
0"3
0"7
0X
0Y
0Z
0;
0[
0"?
0^
0"@
0"A
#151
b0000001000 #D
1#F
b001 #G
1#J
b0000001000 "u
b0000000000000000000000000000000010000000000000000000000101000000 )
b001 -
b0000001000 0
b010 2
b001 4
1;
b0000001000 ",
b0000000000000000000000000000000010000000000000000000000101000000 K
b0000000000000000000000000000000010000000000000000000000101000000 L
b0000000000000000000000000000000010000000000000000000000100100000 N
1"3
b0000001000 S
b010 T
1"7
b001 W
b0000001000 "9
1X
1Y
1Z
1[
b0000001000 "=
b0000001001 ">
1"?
1^
1"@
1"A
b0000001000 c
b0000001000 "F
1#(
b0000000000000000000000000000000010000000000000000000000100100000 f
b0000001000 k
1l
1o
b0000001000 #3
b0000001000 "S
b0000001000 "T
b0000000000000000000000000000000010000000000000000000000100100000 t
b0000000000000000000000000000000010000000000000000000000100100000 "V
b0000001000 v
b001 y
b010 "\
b0000000000000000000000000000000010000000000000000000000100100000 ~
b0000001000 "a
b0000001000 #B
