programs/vcd/ZaqalCore.vcd
$date
2026-01-08T11:14+0000
$end
$version
0.2
$end
$comment

$end
$timescale 1ns  $end
$scope module ZaqalCore $end
 $var wire 1 . reset $end
 $var wire 1 H clock $end
 $var wire 1 T printf $end
 $var wire 1 [ io_success $end
 $var wire 1 \ frontend $end
  $scope module frontend.ftq $end
  $upscope $end
  $scope module frontend $end
   $var wire 64 % pcReg $end
   $var wire 1 * io_fetchOut_valid $end
   $var wire 1 + clock $end
   $var wire 1 2 io_fetchOut_ready $end
   $var wire 64 8 io_fetchOut_bits_pc $end
   $var wire 1 B ftq $end
   $var wire 1 E reset $end
   $var wire 8 P io_fetchOut_bits_mask $end
    $scope module ftq $end
     $var wire 64 ! ram_pc $end
     $var wire 1 $ reset $end
     $var wire 1 ( io_enq_valid $end
     $var wire 1 - io_deq_ready $end
     $var wire 1 0 io_deq_valid $end
     $var wire 1 3 io_enq_ready $end
     $var wire 1 4 ptr_match $end
     $var wire 64 7 io_deq_bits_pc $end
     $var wire 8 9 ram_mask $end
     $var wire 3 ; enq_ptr_value $end
     $var wire 1 < do_deq $end
     $var wire 1 A clock $end
     $var wire 8 D io_deq_bits_mask $end
     $var wire 1 F do_enq $end
     $var wire 64 I io_enq_bits_pc $end
     $var wire 1 J empty $end
     $var wire 8 M io_enq_bits_mask $end
     $var wire 1 R full $end
     $var wire 1 U maybe_full $end
     $var wire 3 W deq_ptr_value $end
      $scope module ram_pc $end
       $var wire 64 / MPORT $end
        $scope module io_deq_bits_MPORT $end
         $var wire 64 " data $end
         $var wire 1 ' clk $end
         $var wire 1 5 en $end
         $var wire 3 6 addr $end
        $upscope $end
        $scope module MPORT $end
         $var wire 3 , pipeline_addr_0 $end
         $var wire 1 1 valid $end
         $var wire 1 @ pipeline_valid_0 $end
         $var wire 1 G en $end
         $var wire 64 L data $end
         $var wire 64 N pipeline_data_0 $end
         $var wire 3 S addr $end
         $var wire 1 Y mask $end
         $var wire 1 Z clk $end
        $upscope $end
      $upscope $end
      $scope module ram_mask $end
       $var wire 8 # MPORT $end
        $scope module MPORT $end
         $var wire 1 & pipeline_valid_0 $end
         $var wire 1 ) valid $end
         $var wire 3 = addr $end
         $var wire 3 > pipeline_addr_0 $end
         $var wire 1 C mask $end
         $var wire 1 K clk $end
         $var wire 1 O en $end
         $var wire 8 Q data $end
         $var wire 8 ] pipeline_data_0 $end
        $upscope $end
        $scope module io_deq_bits_MPORT $end
         $var wire 1 : en $end
         $var wire 8 ? data $end
         $var wire 3 V addr $end
         $var wire 1 X clk $end
        $upscope $end
      $upscope $end
    $upscope $end
  $upscope $end
$upscope $end
$enddefinitions $end
$dumpvars
00
b0000000000000000000000000000000000000000000000000000000000000000 8
01
03
b0000000000000000000000000000000000000000000000000000000000000000 7
04
b0000000000000000000000000000000000000000000000000000000000000000 /
0<
0@
0A
0B
0E
0F
1(
0G
0H
b0000000000000000000000000000000000000000000000000000000000000000 !
0J
0K
b0000000000000000000000000000000000000000000000000000000000000000 %
b0000000000000000000000000000000000000000000000000000000000000000 "
0O
12
0R
b00000000 M
15
0T
0U
0X
1:
0Z
0[
b00000000 D
0\
b00000000 ?
b000 W
b000 V
1C
b00000000 ]
b000 S
b00000000 P
1Y
b00000000 #
b000 6
b11111111 Q
b00000000 9
b000 >
b000 ;
b000 =
b0000000000000000000000000000000000000000000000000000000000000000 N
b000 ,
b0000000000000000000000000000000000000000000000000000000000000000 I
0$
b0000000000000000000000000000000000000000000000000000000000000000 L
0&
0'
0)
0*
0+
0-
0.
$end
#0
1$
1E
1F
1G
1)
1J
1-
b11111111 M
1.
1O
11
13
14
1[
#1
1@
1A
b11111111 D
b0000000000000000000000000000000010000000000000000000000000000000 %
1&
1'
1H
b0000000000000000000000000000000010000000000000000000000000000000 I
1+
1K
b0000000000000000000000000000000010000000000000000000000000000000 L
b11111111 P
1X
1Z
b11111111 ]
b11111111 ?
#6
0A
1$
1E
0'
0H
0X
0Z
0+
0K
1.
#11
1A
b0000000000000000000000000000000010000000000000000000000000000000 "
1'
b0000000000000000000000000000000010000000000000000000000000000000 7
b0000000000000000000000000000000010000000000000000000000000000000 8
1H
1X
1Z
1+
1K
b0000000000000000000000000000000010000000000000000000000000000000 N
#16
0A
0$
0E
0'
0H
0X
0Z
0+
0K
0.
#21
1A
b0000000000000000000000000000000010000000000000000000000000100000 %
1'
1H
b0000000000000000000000000000000010000000000000000000000000100000 I
1*
0J
1+
1K
b0000000000000000000000000000000010000000000000000000000000100000 L
10
b001 S
04
1U
1X
1Z
b001 ;
1<
b001 =
#26
0A
0'
0H
0X
0Z
0+
0K
#31
1A
b0000000000000000000000000000000010000000000000000000000000100000 "
b0000000000000000000000000000000010000000000000000000000001000000 %
1'
1H
b0000000000000000000000000000000010000000000000000000000001000000 I
1+
1K
b001 ,
b0000000000000000000000000000000010000000000000000000000001000000 L
b0000000000000000000000000000000010000000000000000000000000100000 N
b010 S
b001 6
b001 V
b0000000000000000000000000000000010000000000000000000000000100000 7
b001 W
b0000000000000000000000000000000010000000000000000000000000100000 8
1X
1Z
b010 ;
b010 =
b001 >
#36
0A
0'
0H
0X
0Z
0+
0K
#41
1A
b0000000000000000000000000000000010000000000000000000000001000000 "
b0000000000000000000000000000000010000000000000000000000001100000 %
1'
1H
b0000000000000000000000000000000010000000000000000000000001100000 I
1+
1K
b010 ,
b0000000000000000000000000000000010000000000000000000000001100000 L
b0000000000000000000000000000000010000000000000000000000001000000 N
b011 S
b010 6
b010 V
b0000000000000000000000000000000010000000000000000000000001000000 7
b010 W
b0000000000000000000000000000000010000000000000000000000001000000 8
1X
1Z
b011 ;
b011 =
b010 >
#46
0A
0'
0H
0X
0Z
0+
0K
#51
1A
b0000000000000000000000000000000010000000000000000000000001100000 "
b0000000000000000000000000000000010000000000000000000000010000000 %
1'
1H
b0000000000000000000000000000000010000000000000000000000010000000 I
1+
1K
b011 ,
b0000000000000000000000000000000010000000000000000000000010000000 L
b0000000000000000000000000000000010000000000000000000000001100000 N
b100 S
b011 6
b011 V
b0000000000000000000000000000000010000000000000000000000001100000 7
b011 W
b0000000000000000000000000000000010000000000000000000000001100000 8
1X
1Z
b100 ;
b100 =
b011 >
#56
0A
0'
0H
0X
0Z
0+
0K
#61
1A
b0000000000000000000000000000000010000000000000000000000010000000 "
b0000000000000000000000000000000010000000000000000000000010100000 %
1'
1H
b0000000000000000000000000000000010000000000000000000000010100000 I
1+
1K
b100 ,
b0000000000000000000000000000000010000000000000000000000010100000 L
b0000000000000000000000000000000010000000000000000000000010000000 N
b101 S
b100 6
b100 V
b0000000000000000000000000000000010000000000000000000000010000000 7
b100 W
b0000000000000000000000000000000010000000000000000000000010000000 8
1X
1Z
b101 ;
b101 =
b100 >
#66
0A
0'
0H
0X
0Z
0+
0K
#71
1A
b0000000000000000000000000000000010000000000000000000000010100000 "
b0000000000000000000000000000000010000000000000000000000011000000 %
1'
1H
b0000000000000000000000000000000010000000000000000000000011000000 I
1+
1K
b101 ,
b0000000000000000000000000000000010000000000000000000000011000000 L
b0000000000000000000000000000000010000000000000000000000010100000 N
b110 S
b101 6
b101 V
b0000000000000000000000000000000010000000000000000000000010100000 7
b101 W
b0000000000000000000000000000000010000000000000000000000010100000 8
1X
1Z
b110 ;
b110 =
b101 >
#76
0A
0'
0H
0X
0Z
0+
0K
#81
1A
b0000000000000000000000000000000010000000000000000000000011000000 "
b0000000000000000000000000000000010000000000000000000000011100000 %
1'
1H
b0000000000000000000000000000000010000000000000000000000011100000 I
1+
1K
b110 ,
b0000000000000000000000000000000010000000000000000000000011100000 L
b0000000000000000000000000000000010000000000000000000000011000000 N
b111 S
b110 6
b110 V
b0000000000000000000000000000000010000000000000000000000011000000 7
b110 W
b0000000000000000000000000000000010000000000000000000000011000000 8
1X
1Z
b111 ;
b111 =
b110 >
#86
0A
0'
0H
0X
0Z
0+
0K
#91
1A
b0000000000000000000000000000000010000000000000000000000011100000 "
b0000000000000000000000000000000010000000000000000000000100000000 %
1'
1H
b0000000000000000000000000000000010000000000000000000000100000000 I
1+
1K
b111 ,
b0000000000000000000000000000000010000000000000000000000100000000 L
b0000000000000000000000000000000010000000000000000000000011100000 N
b000 S
b111 6
b111 V
b0000000000000000000000000000000010000000000000000000000011100000 7
b111 W
b0000000000000000000000000000000010000000000000000000000011100000 8
1X
1Z
b000 ;
b000 =
b111 >
#96
0A
0'
0H
0X
0Z
0+
0K
#101
1A
b0000000000000000000000000000000010000000000000000000000100000000 "
b0000000000000000000000000000000010000000000000000000000100100000 %
1'
1H
b0000000000000000000000000000000010000000000000000000000100100000 I
1+
1K
b000 ,
b0000000000000000000000000000000010000000000000000000000100100000 L
b0000000000000000000000000000000010000000000000000000000100000000 N
b001 S
b000 6
b000 V
b0000000000000000000000000000000010000000000000000000000100000000 7
b000 W
b0000000000000000000000000000000010000000000000000000000100000000 8
1X
1Z
b001 ;
b001 =
b000 >
#106
0A
0'
0H
0X
0Z
0+
0K
#111
1A
b0000000000000000000000000000000010000000000000000000000100100000 "
b0000000000000000000000000000000010000000000000000000000101000000 %
1'
1H
b0000000000000000000000000000000010000000000000000000000101000000 I
1+
1K
b001 ,
b0000000000000000000000000000000010000000000000000000000101000000 L
b0000000000000000000000000000000010000000000000000000000100100000 N
b010 S
b001 6
b001 V
b0000000000000000000000000000000010000000000000000000000100100000 7
b001 W
b0000000000000000000000000000000010000000000000000000000100100000 8
1X
1Z
b010 ;
b010 =
b001 >
#116
0A
0'
0H
0X
0Z
0+
0K
#121
1A
b0000000000000000000000000000000010000000000000000000000101000000 "
b0000000000000000000000000000000010000000000000000000000101100000 %
1'
1H
b0000000000000000000000000000000010000000000000000000000101100000 I
1+
1K
b010 ,
b0000000000000000000000000000000010000000000000000000000101100000 L
b0000000000000000000000000000000010000000000000000000000101000000 N
b011 S
b010 6
b010 V
b0000000000000000000000000000000010000000000000000000000101000000 7
b010 W
b0000000000000000000000000000000010000000000000000000000101000000 8
1X
1Z
b011 ;
b011 =
b010 >
#126
0A
0'
0H
0X
0Z
0+
0K
#131
1A
b0000000000000000000000000000000010000000000000000000000101100000 "
b0000000000000000000000000000000010000000000000000000000110000000 %
1'
1H
b0000000000000000000000000000000010000000000000000000000110000000 I
1+
1K
b011 ,
b0000000000000000000000000000000010000000000000000000000110000000 L
b0000000000000000000000000000000010000000000000000000000101100000 N
b100 S
b011 6
b011 V
b0000000000000000000000000000000010000000000000000000000101100000 7
b011 W
b0000000000000000000000000000000010000000000000000000000101100000 8
1X
1Z
b100 ;
b100 =
b011 >
#136
0A
0'
0H
0X
0Z
0+
0K
#141
1A
b0000000000000000000000000000000010000000000000000000000110000000 "
b0000000000000000000000000000000010000000000000000000000110100000 %
1'
1H
b0000000000000000000000000000000010000000000000000000000110100000 I
1+
1K
b100 ,
b0000000000000000000000000000000010000000000000000000000110100000 L
b0000000000000000000000000000000010000000000000000000000110000000 N
b101 S
b100 6
b100 V
b0000000000000000000000000000000010000000000000000000000110000000 7
b100 W
b0000000000000000000000000000000010000000000000000000000110000000 8
1X
1Z
b101 ;
b101 =
b100 >
#146
0A
0'
0H
0X
0Z
0+
0K
#151
1A
b0000000000000000000000000000000010000000000000000000000110100000 "
b0000000000000000000000000000000010000000000000000000000111000000 %
1'
1H
b0000000000000000000000000000000010000000000000000000000111000000 I
1+
1K
b101 ,
b0000000000000000000000000000000010000000000000000000000111000000 L
b0000000000000000000000000000000010000000000000000000000110100000 N
b110 S
b101 6
b101 V
b0000000000000000000000000000000010000000000000000000000110100000 7
b101 W
b0000000000000000000000000000000010000000000000000000000110100000 8
1X
1Z
b110 ;
b110 =
b101 >
#156
0A
0'
0H
0X
0Z
0+
0K
#161
1A
b0000000000000000000000000000000010000000000000000000000111000000 "
b0000000000000000000000000000000010000000000000000000000111100000 %
1'
1H
b0000000000000000000000000000000010000000000000000000000111100000 I
1+
1K
b110 ,
b0000000000000000000000000000000010000000000000000000000111100000 L
b0000000000000000000000000000000010000000000000000000000111000000 N
b111 S
b110 6
b110 V
b0000000000000000000000000000000010000000000000000000000111000000 7
b110 W
b0000000000000000000000000000000010000000000000000000000111000000 8
1X
1Z
b111 ;
b111 =
b110 >
#166
0A
0'
0H
0X
0Z
0+
0K
#171
1A
b0000000000000000000000000000000010000000000000000000000111100000 "
b0000000000000000000000000000000010000000000000000000001000000000 %
1'
1H
b0000000000000000000000000000000010000000000000000000001000000000 I
1+
1K
b111 ,
b0000000000000000000000000000000010000000000000000000001000000000 L
b0000000000000000000000000000000010000000000000000000000111100000 N
b000 S
b111 6
b111 V
b0000000000000000000000000000000010000000000000000000000111100000 7
b111 W
b0000000000000000000000000000000010000000000000000000000111100000 8
1X
1Z
b000 ;
b000 =
b111 >
#176
0A
0'
0H
0X
0Z
0+
0K
#181
1A
b0000000000000000000000000000000010000000000000000000001000000000 "
b0000000000000000000000000000000010000000000000000000001000100000 %
1'
1H
b0000000000000000000000000000000010000000000000000000001000100000 I
1+
1K
b000 ,
b0000000000000000000000000000000010000000000000000000001000100000 L
b0000000000000000000000000000000010000000000000000000001000000000 N
b001 S
b000 6
b000 V
b0000000000000000000000000000000010000000000000000000001000000000 7
b000 W
b0000000000000000000000000000000010000000000000000000001000000000 8
1X
1Z
b001 ;
b001 =
b000 >
#186
0A
0'
0H
0X
0Z
0+
0K
#191
1A
b0000000000000000000000000000000010000000000000000000001000100000 "
b0000000000000000000000000000000010000000000000000000001001000000 %
1'
1H
b0000000000000000000000000000000010000000000000000000001001000000 I
1+
1K
b001 ,
b0000000000000000000000000000000010000000000000000000001001000000 L
b0000000000000000000000000000000010000000000000000000001000100000 N
b010 S
b001 6
b001 V
b0000000000000000000000000000000010000000000000000000001000100000 7
b001 W
b0000000000000000000000000000000010000000000000000000001000100000 8
1X
1Z
b010 ;
b010 =
b001 >
#196
0A
0'
0H
0X
0Z
0+
0K
#201
1A
b0000000000000000000000000000000010000000000000000000001001000000 "
b0000000000000000000000000000000010000000000000000000001001100000 %
1'
1H
b0000000000000000000000000000000010000000000000000000001001100000 I
1+
1K
b010 ,
b0000000000000000000000000000000010000000000000000000001001100000 L
b0000000000000000000000000000000010000000000000000000001001000000 N
b011 S
b010 6
b010 V
b0000000000000000000000000000000010000000000000000000001001000000 7
b010 W
b0000000000000000000000000000000010000000000000000000001001000000 8
1X
1Z
b011 ;
b011 =
b010 >
#206
0A
0'
0H
0X
0Z
0+
0K
#211
1A
b0000000000000000000000000000000010000000000000000000001001100000 "
b0000000000000000000000000000000010000000000000000000001010000000 %
1'
1H
b0000000000000000000000000000000010000000000000000000001010000000 I
1+
1K
b011 ,
b0000000000000000000000000000000010000000000000000000001010000000 L
b0000000000000000000000000000000010000000000000000000001001100000 N
b100 S
b011 6
b011 V
b0000000000000000000000000000000010000000000000000000001001100000 7
b011 W
b0000000000000000000000000000000010000000000000000000001001100000 8
1X
1Z
b100 ;
b100 =
b011 >
